{
    "name": "NarupaImd.Editor",
    "references": [
        "GUID:6d9a59f6f15958141a35e574293b947f",
        "GUID:da1c0b2fcb8909f46a9418e37c6e12a7",
        "GUID:3fb0ce59dba2a4e7ba4bfc6522aaa4fa"
    ],
    "includePlatforms": [
        "Editor"
    ],
    "excludePlatforms": [],
    "allowUnsafeCode": false,
    "overrideReferences": true,
    "precompiledReferences": [],
    "autoReferenced": false,
    "defineConstraints": [],
    "versionDefines": [],
    "noEngineReferences": false
}